<svg id="Group_325" data-name="Group 325" xmlns="http://www.w3.org/2000/svg" xmlns:xlink="http://www.w3.org/1999/xlink" width="29.926" height="30" viewBox="0 0 29.926 30">
  <defs>
    <clipPath id="clip-path">
      <rect id="Rectangle_313" data-name="Rectangle 313" width="29.926" height="30"/>
    </clipPath>
  </defs>
  <g id="Group_324" data-name="Group 324">
    <g id="Group_317" data-name="Group 317" clip-path="url(#clip-path)">
      <path id="Path_440" data-name="Path 440" d="M29.207,8.993,10.232,27.709S.518,30.606.074,30.161,2.289,19.773,2.289,19.773L21.272,1.05a2.282,2.282,0,0,1,3.29,0l4.646,4.668a2.3,2.3,0,0,1,0,3.275Zm0,0" transform="translate(-0.022 -0.324)" fill="#2394bc"/>
    </g>
    <g id="Group_318" data-name="Group 318" clip-path="url(#clip-path)">
      <path id="Path_441" data-name="Path 441" d="M30.963,22.072,51.813,1.23l-.23-.237a2.3,2.3,0,0,0-3.29.022L29.341,19.761s-.044.185-.141.511Zm0,0" transform="translate(-27.036 -0.289)" fill="#44a4c6"/>
    </g>
    <g id="Group_319" data-name="Group 319" clip-path="url(#clip-path)">
      <path id="Path_442" data-name="Path 442" d="M128.428,69.286a2.365,2.365,0,0,0-.511-2.519l-.467-.467L106.6,87.142l1.823,1.8c.259-.067.422-.119.489-.141Zm0,0" transform="translate(-98.702 -61.388)" fill="#1f85a9"/>
    </g>
    <g id="Group_320" data-name="Group 320" clip-path="url(#clip-path)">
      <path id="Path_443" data-name="Path 443" d="M.275,273.56l.141.141c1.1.163,9.528-2.334,10.04-2.5l.022-.022a10.723,10.723,0,0,0-1-2.964c-.467-.467-2.5-.533-2.964-.978-.467-.467-.511-2.5-1-2.964a10.3,10.3,0,0,0-2.964-.978C2.535,263.261.09,272.39.275,273.56Zm0,0" transform="translate(-0.245 -243.79)" fill="#ffcaba"/>
    </g>
    <g id="Group_321" data-name="Group 321" clip-path="url(#clip-path)">
      <path id="Path_444" data-name="Path 444" d="M.1,273.35c.163-.282.978-1.726,5.231-9.173a10.3,10.3,0,0,0-2.964-.978c.015-.03-2.289,8.61-2.267,10.151Zm0,0" transform="translate(-0.091 -243.698)" fill="#ffdcd2"/>
    </g>
    <g id="Group_322" data-name="Group 322" clip-path="url(#clip-path)">
      <path id="Path_445" data-name="Path 445" d="M.1,334.575v.067l.141.141c1.1.163,9.528-2.334,10.04-2.5l.022-.022a10.77,10.77,0,0,0-.978-2.964C1.589,333.738.307,334.457.1,334.575Zm0,0" transform="translate(-0.093 -304.901)" fill="#e5b5a7"/>
    </g>
    <g id="Group_323" data-name="Group 323" clip-path="url(#clip-path)">
      <path id="Path_446" data-name="Path 446" d="M1.615,371.485A2.217,2.217,0,0,0,.333,370.9a6.5,6.5,0,0,0-.282,2.408,5.8,5.8,0,0,0,2.171-.282,2.3,2.3,0,0,0-.608-1.541Zm0,0" transform="translate(0 -343.419)" fill="#2394bc"/>
    </g>
  </g>
</svg>
