<svg xmlns="http://www.w3.org/2000/svg" width="22.5" height="30" viewBox="0 0 22.5 30">
  <g id="Group_383" data-name="Group 383" transform="translate(-0.134)">
    <path id="Path_549" data-name="Path 549" d="M23.5,98.535c0,2.44-4.1,4.4-9.187,4.4-5.066,0-9.187-1.971-9.187-4.4L3.3,78.8H25.333Zm0,0" transform="translate(-2.931 -72.938)" fill="#b8d9f2"/>
    <path id="Path_550" data-name="Path 550" d="M3.3,78.8l.283,3.02c1.756,2.083,5.906,3.541,10.734,3.541S23.3,83.91,25.051,81.82l.283-3.02Zm11.017,9.7a.754.754,0,0,0-.751.751v10a.751.751,0,1,0,1.5,0V89.229a.75.75,0,0,0-.751-.729Zm3.7-.372a.754.754,0,0,0-.751.751L16.9,98.862a.751.751,0,1,0,1.5,0l.35-9.983a.74.74,0,0,0-.729-.751Zm3.325-.751a.754.754,0,0,0-.751.751l-.751,9.819a.751.751,0,1,0,1.5,0l.751-9.819a.769.769,0,0,0-.751-.751Zm-10.734.751a.754.754,0,0,0-.751.751l.372,10a.754.754,0,0,0,.751.751.74.74,0,0,0,.751-.751l-.372-10a.754.754,0,0,0-.751-.751Zm-3.325-.751a.754.754,0,0,0-.751.751l.751,9.819a.754.754,0,0,0,.751.751.74.74,0,0,0,.751-.751l-.751-9.819a.8.8,0,0,0-.751-.751Zm0,0" transform="translate(-2.931 -72.938)" fill="#55acee"/>
    <path id="Path_551" data-name="Path 551" d="M21.889,50.9a2.433,2.433,0,0,1,.729,2.016c0,3.117-5.036,5.646-11.247,5.646S.146,56.029.146,52.913a2.564,2.564,0,0,1,.7-2.016c.647-.729,20.4-.729,21.044,0Zm0,0" transform="translate(0 -46.605)" fill="#b8d9f2"/>
    <path id="Path_552" data-name="Path 552" d="M14.317,0c6.092,0,11.017,2.418,11.017,5.393s-4.924,5.393-11.017,5.393S3.3,8.368,3.3,5.393,8.224,0,14.317,0Zm0,0" transform="translate(-2.931)" fill="#55acee"/>
    <path id="Path_553" data-name="Path 553" d="M52.879,109.6,51.8,110.82a19.212,19.212,0,0,0,7.409,1.384,18.7,18.7,0,0,0,7.409-1.384l-1.079-1.22a18.24,18.24,0,0,1-6.33,1.1,17.719,17.719,0,0,1-6.33-1.1Zm0,0" transform="translate(-47.823 -101.447)" fill="#cdcfcf"/>
    <path id="Path_554" data-name="Path 554" d="M14.317,1.875c4.947,0,9.187,1.473,11.017,3.563V5.393C25.333,2.418,20.409,0,14.317,0S3.3,2.418,3.3,5.393v.045C5.13,3.355,9.37,1.875,14.317,1.875Zm0,0" transform="translate(-2.931 0)" fill="#4183b5"/>
    <path id="Path_555" data-name="Path 555" d="M145.383,79.829a18.6,18.6,0,0,0,7.409-1.406L149.467,74.6,144.9,79.829Zm0,0" transform="translate(-133.998 -69.051)" fill="#ccd0d2"/>
    <path id="Path_556" data-name="Path 556" d="M76.7,60.636l.067.067a20.8,20.8,0,0,0,5.482.7,21.047,21.047,0,0,0,4.5-.469l.3-.3L81.877,54.7Zm0,0" transform="translate(-70.871 -50.631)" fill="#dcdedf"/>
    <path id="Path_557" data-name="Path 557" d="M59.209,79.922H59.7L55.133,74.7,51.8,78.516a18.223,18.223,0,0,0,7.409,1.406Zm0,0" transform="translate(-47.823 -69.143)" fill="#e4e7e7"/>
    <path id="Path_558" data-name="Path 558" d="M145.1,112.181h.446a18.779,18.779,0,0,0,7.409-1.384l-1.056-1.2a17.574,17.574,0,0,1-5.482,1.1Zm0,0" transform="translate(-134.183 -101.447)" fill="#b7bbbd"/>
    <path id="Path_559" data-name="Path 559" d="M86.45,117.734a18.043,18.043,0,0,1-3.823.4A17.818,17.818,0,0,1,78.2,117.6l-1.1,1.265.022.022a21.082,21.082,0,0,0,5.534.7,21.318,21.318,0,0,0,4.545-.469l.283-.283-1.034-1.1Zm0,0" transform="translate(-71.241 -108.852)" fill="#c6c7c8"/>
    <path id="Path_560" data-name="Path 560" d="M59.655,111.9l-1.309-1.5a17.574,17.574,0,0,1-5.482-1.1L51.8,110.542a19.212,19.212,0,0,0,7.409,1.384,2.991,2.991,0,0,1,.446-.022Zm0,0" transform="translate(-47.823 -101.17)" fill="#cdcfcf"/>
  </g>
</svg>
