<svg xmlns="http://www.w3.org/2000/svg" width="16.503" height="15.797" viewBox="0 0 16.503 15.797">
  <path id="Path_711" data-name="Path 711" d="M7.357.546A.955.955,0,0,1,8.221,0,.994.994,0,0,1,9.1.546L10.89,4.184a.949.949,0,0,0,.728.531l4.017.576a.981.981,0,0,1,.546,1.668L13.27,9.793a.963.963,0,0,0-.273.864l.682,4a.97.97,0,0,1-1.41,1.031L8.676,13.78a.966.966,0,0,0-.91,0L4.174,15.675A1.008,1.008,0,0,1,3.143,15.6a.939.939,0,0,1-.379-.955l.7-4a.963.963,0,0,0-.273-.864L.262,6.958a.972.972,0,0,1-.243-1,1.015,1.015,0,0,1,.788-.667l4.017-.576a.949.949,0,0,0,.728-.531Z" transform="translate(0.03)" fill="#edebee"/>
</svg>
