<svg id="Group_328" data-name="Group 328" xmlns="http://www.w3.org/2000/svg" width="30" height="29.933" viewBox="0 0 30 29.933">
  <path id="Path_455" data-name="Path 455" d="M19.2,0H46.328V23.365H19.222Zm0,0" transform="translate(-17.775)" fill="#d07c3f"/>
  <path id="Path_456" data-name="Path 456" d="M.3,5.611V28.226a1.768,1.768,0,0,0,1.989,1.707H28.244a1.768,1.768,0,0,0,1.989-1.707V5.611c0,.022-29.911,0-29.933,0ZM4.508,1.893,1.7,0V4.676H4.508ZM28.83,0,26.025,1.87V4.676H28.83Zm0,0" transform="translate(-0.278)" fill="#eec65d"/>
  <path id="Path_457" data-name="Path 457" d="M4.231,28.941V25.2L0,28.941ZM25.747,25.2v3.741H30Zm0,0" transform="translate(0 -23.33)" fill="#dca34f"/>
  <path id="Path_458" data-name="Path 458" d="M73.784,148.1a1.284,1.284,0,1,0,1.284,1.284,1.266,1.266,0,0,0-1.284-1.284Zm15.668,0a1.284,1.284,0,1,0,1.284,1.284,1.266,1.266,0,0,0-1.284-1.284Zm0,0" transform="translate(-67.119 -137.108)" fill="#d07c3f"/>
  <path id="Path_459" data-name="Path 459" d="M90.624,170.519c-4.654,0-8.424-4.112-8.424-9.189a.588.588,0,1,1,1.173,0c0,4.372,3.251,7.9,7.251,7.9s7.251-3.555,7.251-7.9a.588.588,0,1,1,1.173,0c-.007,5.077-3.8,9.189-8.424,9.189Zm0,0" transform="translate(-76.099 -148.773)" fill="#cba94f"/>
  <path id="Path_460" data-name="Path 460" d="M90.717,169.8a8.464,8.464,0,0,1-8.417-8.513.586.586,0,0,1,1.173,0,7.252,7.252,0,1,0,14.5,0,.586.586,0,1,1,1.173,0,8.505,8.505,0,0,1-8.431,8.513Zm0,0" transform="translate(-76.192 -148.773)" fill="#fff"/>
</svg>
