<svg id="Group_2001" data-name="Group 2001" xmlns="http://www.w3.org/2000/svg" xmlns:xlink="http://www.w3.org/1999/xlink" width="184.8" height="197.5" viewBox="0 0 184.8 197.5">
  <defs>
    <linearGradient id="linear-gradient" x1="0.5" y1="-0.241" x2="0.5" y2="0.391" gradientUnits="objectBoundingBox">
      <stop offset="0" stop-color="#fff"/>
      <stop offset="1" stop-color="#ffc900"/>
    </linearGradient>
    <linearGradient id="linear-gradient-2" x1="1.785" y1="2.105" x2="-0.129" y2="-0.297" gradientUnits="objectBoundingBox">
      <stop offset="0" stop-color="#e08000"/>
      <stop offset="1" stop-color="#ffc900"/>
    </linearGradient>
    <linearGradient id="linear-gradient-3" x1="0.246" y1="0.248" x2="0.976" y2="0.927" gradientUnits="objectBoundingBox">
      <stop offset="0" stop-color="#fff"/>
      <stop offset="1"/>
    </linearGradient>
    <linearGradient id="linear-gradient-4" x1="0.781" y1="0.282" x2="-0.023" y2="0.872" xlink:href="#linear-gradient-3"/>
    <clipPath id="clip-path">
      <path id="Path_1401" data-name="Path 1401" d="M22.2,86.3c-3.8,24.5-3.1,49,0,73.4,1.6,6.8,4.7,10.2,12,12,35.7,4.9,71.4,4.2,107.1,0,7.2-2.2,10.4-4.9,12-12,2.6-24.5,3.2-48.9,0-73.4-.9-6.4-4.7-10.1-12-12a671.805,671.805,0,0,0-107.1,0A14.212,14.212,0,0,0,22.2,86.3Z"/>
    </clipPath>
    <linearGradient id="linear-gradient-5" x1="25.176" y1="-1.299" x2="26.847" y2="-2.052" gradientUnits="objectBoundingBox">
      <stop offset="0" stop-color="#1b1713"/>
      <stop offset="1" stop-color="#292829"/>
    </linearGradient>
    <linearGradient id="linear-gradient-6" x1="-207.216" y1="1.686" x2="-206.156" y2="1.686" gradientUnits="objectBoundingBox">
      <stop offset="0" stop-color="#ecbe93"/>
      <stop offset="0.024" stop-color="#ecbd91"/>
      <stop offset="0.297" stop-color="#f1b481"/>
      <stop offset="0.601" stop-color="#f4af77"/>
      <stop offset="1" stop-color="#f5ad74"/>
    </linearGradient>
    <linearGradient id="linear-gradient-7" x1="-197.147" y1="-0.613" x2="-196.169" y2="-0.613" gradientUnits="objectBoundingBox">
      <stop offset="0" stop-color="#f4ab71"/>
      <stop offset="0.543" stop-color="#ec9e56"/>
      <stop offset="1" stop-color="#e69544"/>
    </linearGradient>
    <linearGradient id="linear-gradient-8" x1="-67.701" y1="0.064" x2="-67.748" y2="1.279" gradientUnits="objectBoundingBox">
      <stop offset="0.296" stop-color="#fff"/>
      <stop offset="1" stop-color="#b1b3b6"/>
    </linearGradient>
    <linearGradient id="linear-gradient-9" x1="-242.9" y1="0.747" x2="-240.935" y2="0.217" gradientUnits="objectBoundingBox">
      <stop offset="0" stop-color="#005476"/>
      <stop offset="0.168" stop-color="#008bbf"/>
      <stop offset="0.176" stop-color="#0081b2"/>
      <stop offset="0.191" stop-color="#00739f"/>
      <stop offset="0.209" stop-color="#006992"/>
      <stop offset="0.231" stop-color="#00638a"/>
      <stop offset="0.275" stop-color="#006288"/>
      <stop offset="0.276" stop-color="#006288"/>
      <stop offset="0.296" stop-color="#005c81"/>
      <stop offset="0.352" stop-color="#005b7f"/>
      <stop offset="0.429" stop-color="#0076a3"/>
      <stop offset="0.468" stop-color="#005f84"/>
      <stop offset="0.505" stop-color="#004563"/>
      <stop offset="0.546" stop-color="#004563"/>
      <stop offset="0.563" stop-color="#004d6d"/>
      <stop offset="0.59" stop-color="#005374"/>
      <stop offset="0.663" stop-color="#005476"/>
      <stop offset="0.704" stop-color="#006991"/>
      <stop offset="0.74" stop-color="#005b7f"/>
      <stop offset="0.775" stop-color="#005b7f"/>
      <stop offset="0.837" stop-color="#006991"/>
      <stop offset="0.888" stop-color="#004d6d"/>
      <stop offset="1" stop-color="#006991"/>
    </linearGradient>
    <linearGradient id="linear-gradient-10" x1="-363.478" y1="0.883" x2="-362.81" y2="0.045" gradientUnits="objectBoundingBox">
      <stop offset="0" stop-color="#005476"/>
      <stop offset="0.168" stop-color="#008bbf"/>
      <stop offset="0.176" stop-color="#0081b2"/>
      <stop offset="0.191" stop-color="#00739f"/>
      <stop offset="0.209" stop-color="#006992"/>
      <stop offset="0.231" stop-color="#00638a"/>
      <stop offset="0.275" stop-color="#006288"/>
      <stop offset="0.279" stop-color="#006288"/>
      <stop offset="0.391" stop-color="#00678f"/>
      <stop offset="0.704" stop-color="#006991"/>
      <stop offset="0.74" stop-color="#005b7f"/>
      <stop offset="0.837" stop-color="#006991"/>
      <stop offset="1" stop-color="#006991"/>
    </linearGradient>
    <clipPath id="clip-path-2">
      <path id="Path_1325" data-name="Path 1325" d="M66.6,148s16.1,19.1,18.1,20.7V204l-17.9,3.7Z"/>
    </clipPath>
    <linearGradient id="linear-gradient-11" x1="-585.882" y1="-0.132" x2="-584.774" y2="0.419" gradientUnits="objectBoundingBox">
      <stop offset="0" stop-color="#535353"/>
      <stop offset="1" stop-color="#171919"/>
    </linearGradient>
    <linearGradient id="linear-gradient-12" x1="-1104.414" y1="0.5" x2="-1103.419" y2="0.5" xlink:href="#linear-gradient-3"/>
    <linearGradient id="linear-gradient-13" x1="-1192.775" y1="0.499" x2="-1191.788" y2="0.499" xlink:href="#linear-gradient-3"/>
    <linearGradient id="linear-gradient-14" x1="-1355.44" y1="0.501" x2="-1354.468" y2="0.501" xlink:href="#linear-gradient-3"/>
    <linearGradient id="linear-gradient-15" x1="-1656.637" y1="0.498" x2="-1655.663" y2="0.498" xlink:href="#linear-gradient-3"/>
    <linearGradient id="linear-gradient-16" x1="-165.333" y1="0.487" x2="-163.838" y2="0.498" xlink:href="#linear-gradient-11"/>
    <clipPath id="clip-path-3">
      <path id="Path_1333" data-name="Path 1333" d="M97.8,148s-16.1,19.1-18.1,20.7V204l17.9,3.7Z"/>
    </clipPath>
    <linearGradient id="linear-gradient-17" x1="-1419.997" y1="0.499" x2="-1419.012" y2="0.499" xlink:href="#linear-gradient-3"/>
    <linearGradient id="linear-gradient-18" x1="-1863.702" y1="0.498" x2="-1862.759" y2="0.498" xlink:href="#linear-gradient-3"/>
    <linearGradient id="linear-gradient-19" x1="-2484.975" y1="0.501" x2="-2483.988" y2="0.501" xlink:href="#linear-gradient-3"/>
    <linearGradient id="linear-gradient-20" x1="-3313.329" y1="0.501" x2="-3312.379" y2="0.501" xlink:href="#linear-gradient-3"/>
    <linearGradient id="linear-gradient-21" x1="-4748.277" y1="0.5" x2="-4747.407" y2="0.5" xlink:href="#linear-gradient-3"/>
    <linearGradient id="linear-gradient-22" x1="-4748.246" y1="0.5" x2="-4747.375" y2="0.5" xlink:href="#linear-gradient-3"/>
    <linearGradient id="linear-gradient-23" x1="-196.489" y1="0.5" x2="-195.485" y2="0.5" xlink:href="#linear-gradient-5"/>
    <linearGradient id="linear-gradient-24" x1="-409.24" y1="0.073" x2="-409.472" y2="1.082" gradientUnits="objectBoundingBox">
      <stop offset="0" stop-color="#757575"/>
      <stop offset="0.304" stop-color="#707070"/>
      <stop offset="0.651" stop-color="#626262"/>
      <stop offset="1" stop-color="#4d4d4d"/>
    </linearGradient>
    <linearGradient id="linear-gradient-25" x1="-111.03" y1="0.5" x2="-110.031" y2="0.5" xlink:href="#linear-gradient-5"/>
    <linearGradient id="linear-gradient-26" x1="-262.47" y1="0.094" x2="-262.619" y2="1.108" xlink:href="#linear-gradient-24"/>
    <linearGradient id="linear-gradient-27" x1="3798.896" y1="-68.033" x2="3799.901" y2="-68.033" gradientUnits="objectBoundingBox">
      <stop offset="0" stop-color="#383838"/>
      <stop offset="0.503" stop-color="#7f7c7a"/>
      <stop offset="1" stop-color="#424242"/>
    </linearGradient>
    <linearGradient id="linear-gradient-28" x1="3798.568" y1="-67.615" x2="3799.573" y2="-67.615" xlink:href="#linear-gradient-27"/>
    <linearGradient id="linear-gradient-29" x1="-236.675" y1="0.499" x2="-235.666" y2="0.499" gradientUnits="objectBoundingBox">
      <stop offset="0" stop-color="#fff"/>
      <stop offset="0.221" stop-color="#fbfbfb"/>
      <stop offset="0.452" stop-color="#eeefef"/>
      <stop offset="0.688" stop-color="#d9dadb"/>
      <stop offset="0.925" stop-color="#bcbec0"/>
      <stop offset="1" stop-color="#b1b3b6"/>
    </linearGradient>
    <linearGradient id="linear-gradient-30" x1="-339.485" y1="0.5" x2="-338.489" y2="0.5" xlink:href="#linear-gradient-29"/>
    <linearGradient id="linear-gradient-31" x1="0.01" y1="0.499" x2="1.004" y2="0.499" gradientUnits="objectBoundingBox">
      <stop offset="0.246" stop-color="#f5ad74"/>
      <stop offset="1" stop-color="#ecbe93"/>
    </linearGradient>
    <linearGradient id="linear-gradient-32" x1="-0.006" y1="0.525" x2="0.796" y2="0.483" xlink:href="#linear-gradient-5"/>
    <linearGradient id="linear-gradient-33" x1="-49.067" y1="5.826" x2="-48.131" y2="5.826" gradientUnits="objectBoundingBox">
      <stop offset="0" stop-color="#ecbe93"/>
      <stop offset="0.351" stop-color="#edbb8e"/>
      <stop offset="0.783" stop-color="#f2b37e"/>
      <stop offset="1" stop-color="#f5ad74"/>
    </linearGradient>
    <linearGradient id="linear-gradient-34" x1="-62.79" y1="13.764" x2="-62.113" y2="13.703" xlink:href="#linear-gradient-5"/>
    <linearGradient id="linear-gradient-35" x1="-349.225" y1="0.499" x2="-348.231" y2="0.499" xlink:href="#linear-gradient-31"/>
    <radialGradient id="radial-gradient" cx="144.317" cy="185.655" r="16.605" gradientTransform="translate(-24.09 -31.169) scale(1.307 1.307)" xlink:href="#linear-gradient-33"/>
    <linearGradient id="linear-gradient-36" x1="-257.074" y1="0.518" x2="-256.081" y2="0.518" gradientUnits="objectBoundingBox">
      <stop offset="0.006" stop-color="#ccc"/>
      <stop offset="0.214" stop-color="#c3c3c3"/>
      <stop offset="0.562" stop-color="#a9a9a9"/>
      <stop offset="1" stop-color="gray"/>
    </linearGradient>
    <linearGradient id="linear-gradient-37" x1="0.003" y1="0.498" x2="1.003" y2="0.498" xlink:href="#linear-gradient-36"/>
    <linearGradient id="linear-gradient-38" x1="0" y1="0.498" x2="1" y2="0.498" xlink:href="#linear-gradient-36"/>
    <radialGradient id="radial-gradient-2" cx="0.996" cy="0.974" r="3.696" gradientTransform="translate(0.04 0.039) scale(0.96 0.96)" gradientUnits="userSpaceOnUse">
      <stop offset="0.018" stop-color="#585b5f"/>
      <stop offset="0.291" stop-color="#53595e"/>
      <stop offset="0.601" stop-color="#465359"/>
      <stop offset="0.928" stop-color="#2f4952"/>
      <stop offset="1" stop-color="#294650"/>
    </radialGradient>
    <linearGradient id="linear-gradient-39" x1="0.006" y1="0.498" x2="1.004" y2="0.498" gradientUnits="objectBoundingBox">
      <stop offset="0" stop-color="#75452f"/>
      <stop offset="0.521" stop-color="#75452f"/>
      <stop offset="1" stop-color="#4b2a19"/>
    </linearGradient>
    <radialGradient id="radial-gradient-3" cx="1.03" cy="0.974" r="3.696" gradientTransform="translate(0.041 0.039) scale(0.96 0.96)" xlink:href="#radial-gradient-2"/>
    <linearGradient id="linear-gradient-40" x1="-0.002" y1="0.498" x2="0.997" y2="0.498" xlink:href="#linear-gradient-39"/>
    <linearGradient id="linear-gradient-41" x1="63.009" y1="58.049" x2="62.872" y2="58.613" gradientUnits="objectBoundingBox">
      <stop offset="0" stop-color="#cf2309"/>
      <stop offset="1" stop-color="#f6353b"/>
    </linearGradient>
    <linearGradient id="linear-gradient-42" x1="-124.574" y1="-964.394" x2="-123.581" y2="-964.394" gradientUnits="objectBoundingBox">
      <stop offset="0" stop-color="#e4e4e5"/>
      <stop offset="0.526" stop-color="#fff"/>
      <stop offset="0.89" stop-color="#d1d1d2"/>
    </linearGradient>
    <linearGradient id="linear-gradient-43" x1="616.555" y1="0.499" x2="617.55" y2="0.499" gradientUnits="objectBoundingBox">
      <stop offset="0" stop-color="#ffa161"/>
      <stop offset="0.106" stop-color="#fe9c5c"/>
      <stop offset="0.668" stop-color="#f88547"/>
    </linearGradient>
    <linearGradient id="linear-gradient-44" x1="-289.346" y1="0.528" x2="-288.343" y2="0.528" gradientUnits="objectBoundingBox">
      <stop offset="0" stop-color="#e4e4e5"/>
      <stop offset="0.526" stop-color="#fff"/>
      <stop offset="1" stop-color="#d1d1d2"/>
    </linearGradient>
    <linearGradient id="linear-gradient-45" x1="1.014" y1="320.607" x2="2.326" y2="320.607" xlink:href="#linear-gradient-43"/>
    <linearGradient id="linear-gradient-46" x1="0.001" y1="0.505" x2="0.992" y2="0.505" gradientUnits="objectBoundingBox">
      <stop offset="0" stop-color="#292d31"/>
      <stop offset="0.032" stop-color="#262a2d"/>
      <stop offset="0.185" stop-color="#1d2022"/>
      <stop offset="0.401" stop-color="#181b1b"/>
      <stop offset="1" stop-color="#171919"/>
    </linearGradient>
    <linearGradient id="linear-gradient-47" x1="0.007" y1="0.498" x2="1.013" y2="0.498" xlink:href="#linear-gradient-33"/>
    <linearGradient id="linear-gradient-48" x1="-0.031" y1="0.495" x2="0.975" y2="0.495" xlink:href="#linear-gradient-7"/>
    <linearGradient id="linear-gradient-49" x1="-0.003" y1="0.481" x2="1.002" y2="0.481" xlink:href="#linear-gradient-7"/>
    <linearGradient id="linear-gradient-50" x1="0.002" y1="0.495" x2="1.001" y2="0.495" xlink:href="#linear-gradient-7"/>
    <linearGradient id="linear-gradient-51" x1="-0.137" y1="0.352" x2="0.874" y2="0.352" xlink:href="#linear-gradient-7"/>
    <linearGradient id="linear-gradient-52" x1="-422.417" y1="0.499" x2="-421.419" y2="0.499" gradientUnits="objectBoundingBox">
      <stop offset="0" stop-color="#bbbdbf"/>
      <stop offset="0.247" stop-color="#c2c3c5"/>
      <stop offset="0.597" stop-color="#d4d5d6"/>
      <stop offset="1" stop-color="#f2f2f2"/>
    </linearGradient>
    <linearGradient id="linear-gradient-53" x1="-72.065" y1="0.501" x2="-71.064" y2="0.501" xlink:href="#linear-gradient-52"/>
    <linearGradient id="linear-gradient-54" x1="-196.698" y1="-185.2" x2="-196.66" y2="-189.484" gradientUnits="objectBoundingBox">
      <stop offset="0.006" stop-color="#e6e6e6"/>
      <stop offset="0.173" stop-color="#ddd"/>
      <stop offset="0.452" stop-color="#c3c3c3"/>
      <stop offset="0.807" stop-color="#9a9a9a"/>
      <stop offset="1" stop-color="gray"/>
    </linearGradient>
    <linearGradient id="linear-gradient-55" x1="-860.013" y1="-212.172" x2="-859.842" y2="-215.821" xlink:href="#linear-gradient-54"/>
    <linearGradient id="linear-gradient-56" x1="-1008.143" y1="-356.868" x2="-1007.942" y2="-363.012" xlink:href="#linear-gradient-54"/>
    <linearGradient id="linear-gradient-57" x1="-160.703" y1="-37.527" x2="-160.672" y2="-44.243" xlink:href="#linear-gradient-54"/>
    <linearGradient id="linear-gradient-58" x1="3422.767" y1="138.694" x2="3423.137" y2="136.221" xlink:href="#linear-gradient-54"/>
  </defs>
  <path id="Path_1259" data-name="Path 1259" d="M28.8,192.8l2.4-9.5,7.1,1-5.1,9.1A5.452,5.452,0,0,1,28.8,192.8Z" fill="#999" fill-rule="evenodd"/>
  <path id="Path_1260" data-name="Path 1260" d="M162.1,193.2l-2.4-9.5-7.1,1.1,5.1,9.1A5.1,5.1,0,0,0,162.1,193.2Z" fill="#999" fill-rule="evenodd"/>
  <path id="Path_1261" data-name="Path 1261" d="M12.5,166.1c-4.8-30.6-3.8-61.2,0-91.9,0-8.3,5.6-13.8,14.9-15.1,44.4-6.1,88.7-5.3,133.1,0,9.8,1.9,15,6.8,15,15.1,3.2,30.6,3.9,61.2,0,91.9a15.065,15.065,0,0,1-15,15.1,833,833,0,0,1-133.1,0A15.11,15.11,0,0,1,12.5,166.1Z" fill-rule="evenodd" fill="url(#linear-gradient)"/>
  <path id="Path_1262" data-name="Path 1262" d="M11.9,76.9c-4.8,30.6-3.9,61.2,0,91.9A15.151,15.151,0,0,0,27,183.9c44.7,6.1,89.4,5.3,134,0a15.151,15.151,0,0,0,15.1-15.1c3.2-30.6,4-61.2,0-91.9-1-8.6-5.2-13.7-15.1-15.1a844.277,844.277,0,0,0-134,0C18.8,63.1,13.4,67.6,11.9,76.9Z" fill-rule="evenodd" fill="url(#linear-gradient-2)"/>
  <path id="Path_1263" data-name="Path 1263" d="M115.2,29.4l11.7-13.8,1.8.9L117.1,30.4A2.149,2.149,0,0,1,115.2,29.4Z" fill="#ccc" fill-rule="evenodd"/>
  <path id="Path_1264" data-name="Path 1264" d="M98.3,48.7,116,27.9l2.7,1.3L101.2,50.3A4.627,4.627,0,0,1,98.3,48.7Z" fill="#b0b0b0" fill-rule="evenodd"/>
  <g id="Group_1954" data-name="Group 1954">
    <path id="Path_1265" data-name="Path 1265" d="M129,17.7l-3.3-2.3,1.4-1.5,3.2,2.3Z" fill-rule="evenodd" fill="url(#linear-gradient-3)"/>
    <path id="Path_1266" data-name="Path 1266" d="M126.5,15.9l-.8-.6,1.4-1.5.9.6Z" fill="#b0b0b0" fill-rule="evenodd"/>
  </g>
  <path id="Path_1267" data-name="Path 1267" d="M72.1,20.3,62.5,5l-1.9.6L70,21A2.674,2.674,0,0,0,72.1,20.3Z" fill="#ccc" fill-rule="evenodd"/>
  <path id="Path_1268" data-name="Path 1268" d="M89.6,47.9,71.4,18.6l-2.8.9L86.5,49A3.809,3.809,0,0,0,89.6,47.9Z" fill="#b0b0b0" fill-rule="evenodd"/>
  <g id="Group_1955" data-name="Group 1955">
    <path id="Path_1269" data-name="Path 1269" d="M59.9,6.3l3.6-1.9L62.3,2.8,58.9,4.6Z" fill-rule="evenodd" fill="url(#linear-gradient-4)"/>
    <path id="Path_1270" data-name="Path 1270" d="M62.6,4.9l1-.5L62.4,2.7l-1,.5Z" fill="#b0b0b0" fill-rule="evenodd"/>
  </g>
  <path id="Path_1271" data-name="Path 1271" d="M82.6,55.3c.4,2.3,18.7,3,22.2,0-.6-5.1-3.7-8.3-10.9-8.5C87.8,47.1,83,48.8,82.6,55.3Z" fill="#7d7d7d" fill-rule="evenodd"/>
  <path id="Path_1272" data-name="Path 1272" d="M57.5,3.4a3.4,3.4,0,0,1,6.8,0,3.4,3.4,0,0,1-6.8,0Z" fill="#b0b0b0" fill-rule="evenodd"/>
  <path id="Path_1273" data-name="Path 1273" d="M125.3,15a3.4,3.4,0,1,1,3.4,3.4A3.372,3.372,0,0,1,125.3,15Z" fill="#b0b0b0" fill-rule="evenodd"/>
  <path id="Path_1274" data-name="Path 1274" d="M17.2,83.4c-4.1,26.3-3.3,52.7,0,79a12.974,12.974,0,0,0,13,13c38.4,5.3,76.9,4.6,115.3,0a12.953,12.953,0,0,0,12.9-13c2.8-26.3,3.4-52.7,0-79a12.953,12.953,0,0,0-12.9-13,727.553,727.553,0,0,0-115.3,0A13.1,13.1,0,0,0,17.2,83.4Z" fill="#e08000" fill-rule="evenodd"/>
  <path id="Path_1275" data-name="Path 1275" d="M22.2,86.3c-3.8,24.5-3.1,49,0,73.4,1.6,6.8,4.7,10.2,12,12,35.7,4.9,71.4,4.2,107.1,0,7.2-2.2,10.4-4.9,12-12,2.6-24.5,3.2-48.9,0-73.4-.9-6.4-4.7-10.1-12-12a671.805,671.805,0,0,0-107.1,0A14.212,14.212,0,0,0,22.2,86.3Z" fill="#054c61" fill-rule="evenodd"/>
  <path id="Path_1276" data-name="Path 1276" d="M98.4,123.1a435.191,435.191,0,0,1-63.5-4.5l-8-1.4.3-10.7c.4-5.4,1-10.9,1.8-16.3A12.946,12.946,0,0,1,39.8,79.5a611.466,611.466,0,0,1,95.7,0c6.5,1.7,10,5,10.8,10.7.7,5.4,1.2,10.9,1.5,16.3l.4,13.9-1.2.1A444.279,444.279,0,0,1,98.4,123.1Z" fill="#fff" fill-rule="evenodd" opacity="0.1"/>
  <path id="Path_1277" data-name="Path 1277" d="M162.3,96.8a5.921,5.921,0,1,0,6.4-5.4A6.068,6.068,0,0,0,162.3,96.8Z" fill="#ccc" fill-rule="evenodd"/>
  <path id="Path_1278" data-name="Path 1278" d="M163.3,97.8a4.867,4.867,0,1,1,5.3,4.5A5.061,5.061,0,0,1,163.3,97.8Z" fill="#999" fill-rule="evenodd"/>
  <path id="Path_1279" data-name="Path 1279" d="M164.7,93.4l4.6,9.4c.5,1,1.5,1.6,2.2,1.2h0c.7-.3.8-1.5.3-2.5l-4.7-9.4c-.5-1-1.5-1.6-2.2-1.2h0C164.3,91.2,164.2,92.3,164.7,93.4Z" fill="#4a4a4a" fill-rule="evenodd"/>
  <path id="Path_1280" data-name="Path 1280" d="M165,93l4.7,9.4c.5,1,1.5,1.6,2.2,1.2h0c.7-.3.9-1.5.4-2.5l-4.7-9.4c-.5-1-1.5-1.6-2.2-1.2h0C164.6,90.9,164.5,92,165,93Z" fill="#b0b0b0" fill-rule="evenodd"/>
  <path id="Path_1281" data-name="Path 1281" d="M163.8,153a.871.871,0,0,1-.9-1v-.3a1.1,1.1,0,0,1,1.1-1h9.9a.919.919,0,0,1,.9,1v.3a1,1,0,0,1-1,1Zm.2-3.3a.871.871,0,0,1-.9-1v-.3a1.075,1.075,0,0,1,1-1H174a.871.871,0,0,1,.9,1v.3a1,1,0,0,1-1,1Zm.2-3.6a.827.827,0,0,1-.9-1v-.3a1.075,1.075,0,0,1,1-1h9.9a.871.871,0,0,1,.9,1v.3a1.075,1.075,0,0,1-1,1Zm.1-3.4a.919.919,0,0,1-.9-1v-.3a1,1,0,0,1,1-1h9.9a.871.871,0,0,1,.9,1v.3a1.075,1.075,0,0,1-1,1Zm.2-3.5a.919.919,0,0,1-.9-1v-.3a1,1,0,0,1,1-1h9.9a.871.871,0,0,1,.9,1v.3a1.075,1.075,0,0,1-1,1Zm.2-3.6a.871.871,0,0,1-.9-1v-.3a1,1,0,0,1,1-1h9.9a.871.871,0,0,1,.9,1v.3a1.075,1.075,0,0,1-1,1Zm.2-3.5a.871.871,0,0,1-.9-1v-.3a1,1,0,0,1,1-1h9.9a.871.871,0,0,1,.9,1v.3a1.1,1.1,0,0,1-1.1,1Z" fill="#7d2b00" fill-rule="evenodd"/>
  <path id="Path_1282" data-name="Path 1282" d="M175.6,117.2a5.876,5.876,0,1,1-6.3-5.3A5.743,5.743,0,0,1,175.6,117.2Z" fill="#ccc" fill-rule="evenodd"/>
  <path id="Path_1283" data-name="Path 1283" d="M174.6,118.1a4.871,4.871,0,1,0-5.3,4.4A4.838,4.838,0,0,0,174.6,118.1Z" fill="#999" fill-rule="evenodd"/>
  <path id="Path_1284" data-name="Path 1284" d="M173.2,113.7l-4.7,9.4c-.5,1-1.5,1.6-2.2,1.2h0a1.892,1.892,0,0,1-.4-2.5l4.6-9.4c.5-1,1.5-1.6,2.2-1.2h0C173.6,111.6,173.7,112.7,173.2,113.7Z" fill="#4a4a4a" fill-rule="evenodd"/>
  <path id="Path_1285" data-name="Path 1285" d="M172.9,113.3l-4.6,9.4c-.5,1-1.5,1.6-2.2,1.2h0c-.7-.3-.9-1.5-.4-2.5l4.7-9.5c.5-1,1.5-1.6,2.2-1.2h0A2.047,2.047,0,0,1,172.9,113.3Z" fill="#b0b0b0" fill-rule="evenodd"/>
  <g id="Group_1956" data-name="Group 1956" opacity="0.3">
    <path id="Path_1286" data-name="Path 1286" d="M93,192.2c35.4,0,64.1.9,64.1,2s-28.7,2-64.1,2-64.1-.9-64.1-2C28.9,193.2,57.6,192.2,93,192.2Z" fill-rule="evenodd" opacity="0.01"/>
    <path id="Path_1287" data-name="Path 1287" d="M27.8,194.3c0,1.2,29.2,2.1,65.1,2.1,36,0,65.1-.9,65.1-2.1,0-1.1-29.2-2.1-65.1-2.1S27.8,193.2,27.8,194.3Z" fill-rule="evenodd" opacity="0.01"/>
    <path id="Path_1288" data-name="Path 1288" d="M26.7,194.3c0,1.2,29.7,2.1,66.2,2.1,36.6,0,66.2-.9,66.2-2.1s-29.7-2.1-66.2-2.1S26.7,193.1,26.7,194.3Z" fill-rule="evenodd" opacity="0.01"/>
    <path id="Path_1289" data-name="Path 1289" d="M25.6,194.3c0,1.2,30.2,2.1,67.3,2.1s67.3-1,67.3-2.1c0-1.2-30.2-2.2-67.3-2.2S25.6,193.1,25.6,194.3Z" fill-rule="evenodd" opacity="0.01"/>
    <path id="Path_1290" data-name="Path 1290" d="M24.5,194.3c0,1.2,30.6,2.2,68.4,2.2s68.4-1,68.4-2.2-30.6-2.2-68.4-2.2S24.5,193.1,24.5,194.3Z" fill-rule="evenodd" opacity="0.01"/>
    <path id="Path_1291" data-name="Path 1291" d="M23.4,194.3c0,1.2,31.1,2.2,69.5,2.2s69.5-1,69.5-2.2-31.1-2.2-69.5-2.2S23.4,193.1,23.4,194.3Z" fill-rule="evenodd" opacity="0.01"/>
    <path id="Path_1292" data-name="Path 1292" d="M22.3,194.4c0,1.2,31.6,2.2,70.6,2.2s70.6-1,70.6-2.2-31.6-2.3-70.6-2.3S22.3,193.1,22.3,194.4Z" fill-rule="evenodd" opacity="0.01"/>
    <path id="Path_1293" data-name="Path 1293" d="M21.2,194.4c0,1.3,32.1,2.3,71.7,2.3s71.7-1,71.7-2.3-32.1-2.3-71.7-2.3S21.2,193.1,21.2,194.4Z" fill-rule="evenodd" opacity="0.01"/>
    <path id="Path_1294" data-name="Path 1294" d="M20,194.4c0,1.3,32.6,2.3,72.8,2.3s72.8-1,72.8-2.3-32.6-2.3-72.8-2.3C52.6,192,20,193.1,20,194.4Z" fill-rule="evenodd" opacity="0.01"/>
    <path id="Path_1295" data-name="Path 1295" d="M18.9,194.4c0,1.3,33.1,2.4,73.9,2.4s73.9-1.1,73.9-2.4S133.6,192,92.8,192,18.9,193.1,18.9,194.4Z" fill-rule="evenodd" opacity="0.01"/>
    <path id="Path_1296" data-name="Path 1296" d="M17.8,194.4c0,1.3,33.6,2.4,75,2.4s75-1.1,75-2.4-33.6-2.4-75-2.4S17.8,193.1,17.8,194.4Z" fill-rule="evenodd" opacity="0.01"/>
    <path id="Path_1297" data-name="Path 1297" d="M16.7,194.4c0,1.3,34.1,2.4,76,2.4s76-1.1,76-2.4-34.1-2.4-76-2.4S16.7,193,16.7,194.4Z" fill-rule="evenodd" opacity="0.01"/>
    <path id="Path_1298" data-name="Path 1298" d="M15.6,194.4c0,1.4,34.5,2.5,77.1,2.5s77.1-1.1,77.1-2.5-34.6-2.5-77.1-2.5C50.1,191.9,15.6,193,15.6,194.4Z" fill-rule="evenodd" opacity="0.01"/>
    <path id="Path_1299" data-name="Path 1299" d="M14.5,194.4c0,1.4,35,2.5,78.2,2.5s78.2-1.1,78.2-2.5-35-2.5-78.2-2.5S14.5,193,14.5,194.4Z" fill-rule="evenodd" opacity="0.01"/>
    <path id="Path_1300" data-name="Path 1300" d="M13.4,194.4c0,1.4,35.5,2.5,79.3,2.5s79.3-1.1,79.3-2.5-35.5-2.5-79.3-2.5S13.4,193,13.4,194.4Z" fill-rule="evenodd" opacity="0.01"/>
    <path id="Path_1301" data-name="Path 1301" d="M12.2,194.4c0,1.4,36,2.6,80.4,2.6s80.4-1.1,80.4-2.6c0-1.4-36-2.6-80.4-2.6C48.3,191.9,12.2,193,12.2,194.4Z" fill-rule="evenodd" opacity="0.01"/>
    <path id="Path_1302" data-name="Path 1302" d="M11.1,194.4c0,1.4,36.5,2.6,81.5,2.6s81.5-1.2,81.5-2.6-36.5-2.6-81.5-2.6S11.1,193,11.1,194.4Z" fill-rule="evenodd" opacity="0.01"/>
    <path id="Path_1303" data-name="Path 1303" d="M10,194.4c0,1.5,37,2.6,82.6,2.6s82.6-1.2,82.6-2.6-37-2.6-82.6-2.6S10,193,10,194.4Z" fill-rule="evenodd" opacity="0.01"/>
    <path id="Path_1304" data-name="Path 1304" d="M8.9,194.5c0,1.5,37.5,2.7,83.7,2.7s83.7-1.2,83.7-2.7-37.5-2.7-83.7-2.7S8.9,193,8.9,194.5Z" fill-rule="evenodd" opacity="0.01"/>
    <path id="Path_1305" data-name="Path 1305" d="M7.8,194.5c0,1.5,38,2.7,84.7,2.7s84.8-1.2,84.8-2.7-38-2.7-84.8-2.7S7.8,193,7.8,194.5Z" fill-rule="evenodd" opacity="0.01"/>
    <path id="Path_1306" data-name="Path 1306" d="M6.7,194.5c0,1.5,38.5,2.7,85.8,2.7,47.4,0,85.8-1.2,85.8-2.7s-38.5-2.7-85.8-2.7C45.1,191.7,6.7,193,6.7,194.5Z" fill-rule="evenodd" opacity="0.01"/>
    <path id="Path_1307" data-name="Path 1307" d="M5.6,194.5c0,1.5,38.9,2.8,86.9,2.8s86.9-1.2,86.9-2.8c0-1.5-38.9-2.8-86.9-2.8S5.6,192.9,5.6,194.5Z" fill-rule="evenodd" opacity="0.01"/>
    <path id="Path_1308" data-name="Path 1308" d="M4.4,194.5c0,1.5,39.4,2.8,88,2.8s88-1.3,88-2.8c0-1.6-39.4-2.8-88-2.8C43.9,191.7,4.4,192.9,4.4,194.5Z" fill-rule="evenodd" opacity="0.01"/>
    <path id="Path_1309" data-name="Path 1309" d="M3.3,194.5c0,1.6,39.9,2.8,89.1,2.8s89.1-1.3,89.1-2.8c0-1.6-39.9-2.8-89.1-2.8C43.3,191.7,3.3,192.9,3.3,194.5Z" fill-rule="evenodd" opacity="0.01"/>
    <path id="Path_1310" data-name="Path 1310" d="M2.2,194.5c0,1.6,40.4,2.9,90.2,2.9s90.2-1.3,90.2-2.9-40.4-2.9-90.2-2.9S2.2,192.9,2.2,194.5Z" fill-rule="evenodd" opacity="0.01"/>
    <path id="Path_1311" data-name="Path 1311" d="M1.1,194.5c0,1.6,40.9,2.9,91.3,2.9s91.3-1.3,91.3-2.9-40.9-2.9-91.3-2.9S1.1,192.9,1.1,194.5Z" fill-rule="evenodd" opacity="0.01"/>
    <path id="Path_1312" data-name="Path 1312" d="M92.4,191.6c51,0,92.4,1.3,92.4,2.9s-41.4,3-92.4,3S0,196.2,0,194.5,41.4,191.6,92.4,191.6Z" fill-rule="evenodd" opacity="0.01"/>
  </g>
  <g id="Group_2000" data-name="Group 2000">
    <g id="Group_1999" data-name="Group 1999" clip-path="url(#clip-path)">
      <path id="Path_1313" data-name="Path 1313" d="M59.9,141.6s-.3,1-2.7,8.4c-2.3,7.4-8.4,20.2-7.5,30,.2,2.1,10.4,23.7,13.3,14,3-9.7,3.1-31.2,3.6-35.9C67.2,153.3,67.5,140.2,59.9,141.6Z" fill="url(#linear-gradient-5)"/>
      <g id="Group_1957" data-name="Group 1957">
        <path id="Path_1314" data-name="Path 1314" d="M91.6,126l-1.2,16.6s-5.1,5.9-11.5-.1l-1.2-10.6-1.1-6.5Z" fill="url(#linear-gradient-6)"/>
        <path id="Path_1315" data-name="Path 1315" d="M91.8,128.6s-7.1,16.2-14.9,1.9Z" fill="url(#linear-gradient-7)"/>
      </g>
      <path id="Path_1316" data-name="Path 1316" d="M64.1,203.6l43.7,2-13-70.1s-9.2,4.4-12.7,5.1c0,0-7.3-4.7-8.6-4.8C70.7,135.5,65.6,191.2,64.1,203.6Z" fill="url(#linear-gradient-8)"/>
      <path id="Path_1317" data-name="Path 1317" d="M84.4,146.9h0s-2.7-.7-3.7.2l-5.2,35.3,5.8,9.8,6.5-9.5Z" fill="url(#linear-gradient-9)"/>
      <path id="Path_1318" data-name="Path 1318" d="M78.2,142.3a43.137,43.137,0,0,1,1.8,4c.2.8.5.8.9.7s2.6-.1,3.4-.1c.6,0,.7-.6.9-1.5.2-.6,1.2-3.4,1.2-3.4s-2.8-.3-3.9-1.5H82A18.365,18.365,0,0,0,78.2,142.3Z" fill="url(#linear-gradient-10)"/>
      <g id="Group_1965" data-name="Group 1965">
        <g id="Group_1964" data-name="Group 1964" clip-path="url(#clip-path-2)">
          <path id="Path_1319" data-name="Path 1319" d="M66.6,148s16.1,19.1,18.1,20.7V204l-17.9,3.7Z" fill="url(#linear-gradient-11)"/>
          <g id="Group_1963" data-name="Group 1963">
            <g id="Group_1958" data-name="Group 1958">
              <path id="Path_1320" data-name="Path 1320" d="M80.6,210.5h-.3c1.7-8.9,1.5-27.5,1.5-27.7,0,0,.5-5.8.9-9.7s.5-12.1.5-12.2h.3c0,.1-.2,8.3-.5,12.2-.4,4-.9,9.7-.9,9.7C82.2,182.9,82.3,201.5,80.6,210.5Z" fill="#8c6239" opacity="0.2"/>
            </g>
            <g id="Group_1959" data-name="Group 1959">
              <path id="Path_1321" data-name="Path 1321" d="M79.5,210.4l-.3-.1c1.5-6.4.8-27.8.8-28,.5-4.5,1.6-22.7,1.6-22.9h.3c0,.2-1.1,18.4-1.6,22.9C80.4,182.5,81,204,79.5,210.4Z" opacity="0.2" fill="url(#linear-gradient-12)"/>
            </g>
            <g id="Group_1960" data-name="Group 1960">
              <path id="Path_1322" data-name="Path 1322" d="M78,210.3h-.3c0-.1.5-7.3.7-12.6s0-15.3,0-15.4c.5-6.5,1.5-27.2,1.5-27.4h.3c0,.2-1,20.9-1.5,27.4,0,.1.2,10.1,0,15.4S78,210.2,78,210.3Z" opacity="0.2" fill="url(#linear-gradient-13)"/>
            </g>
            <g id="Group_1961" data-name="Group 1961">
              <path id="Path_1323" data-name="Path 1323" d="M76.1,210.2h-.3c.4-5.8.7-26.3.7-28.6,0-2.1.4-12,.4-12.1l.8-15.4H78l-.8,15.4c0,.1-.4,9.9-.4,12C76.7,183.9,76.5,204.4,76.1,210.2Z" opacity="0.2" fill="url(#linear-gradient-14)"/>
            </g>
            <g id="Group_1962" data-name="Group 1962">
              <path id="Path_1324" data-name="Path 1324" d="M73.8,211.4c0-.3.6-32.8.8-36.4.2-3.5.7-20.3.7-20.4h.3c0,.2-.5,16.9-.7,20.5-.2,3.5-.8,36-.8,36.4Z" opacity="0.2" fill="url(#linear-gradient-15)"/>
            </g>
          </g>
        </g>
      </g>
      <g id="Group_1966" data-name="Group 1966">
        <path id="Path_1326" data-name="Path 1326" d="M97.8,148s-16.1,19.1-18.1,20.7V204l17.9,3.7Z" fill="url(#linear-gradient-16)"/>
        <ellipse id="Ellipse_367" data-name="Ellipse 367" cx="0.7" cy="0.6" rx="0.7" ry="0.6" transform="translate(81.3 178.5)" fill="#333"/>
        <ellipse id="Ellipse_368" data-name="Ellipse 368" cx="0.7" cy="0.6" rx="0.7" ry="0.6" transform="translate(81.3 191.5)" fill="#333"/>
      </g>
      <g id="Group_1974" data-name="Group 1974">
        <g id="Group_1973" data-name="Group 1973" clip-path="url(#clip-path-3)">
          <g id="Group_1967" data-name="Group 1967">
            <path id="Path_1327" data-name="Path 1327" d="M81.9,210.4h.3c-1.4-8.9-.9-27.5-.9-27.7,0,0-.4-5.8-.7-9.7s-.2-12.1-.2-12.2h-.3c0,.1,0,8.3.2,12.2.3,4,.7,9.7.7,9.7C81,182.8,80.5,201.4,81.9,210.4Z" opacity="0.2" fill="url(#linear-gradient-17)"/>
          </g>
          <g id="Group_1968" data-name="Group 1968">
            <path id="Path_1328" data-name="Path 1328" d="M83,210.4h.3c-1.4-6.4-.2-27.8-.2-28-.4-4.5-1.1-22.8-1.1-22.9h-.3c0,.2.6,18.4,1.1,22.9C82.8,182.5,81.7,203.9,83,210.4Z" opacity="0.2" fill="url(#linear-gradient-18)"/>
          </g>
          <g id="Group_1969" data-name="Group 1969">
            <path id="Path_1329" data-name="Path 1329" d="M84.5,210.3h.3c0-.1-.3-7.3-.4-12.7-.1-5.3.3-15.3.4-15.4-.3-6.5-.9-27.3-.9-27.5h-.3c0,.2.5,21,.9,27.5,0,.1-.5,10.1-.4,15.4C84.3,203,84.5,210.2,84.5,210.3Z" opacity="0.2" fill="url(#linear-gradient-19)"/>
          </g>
          <g id="Group_1970" data-name="Group 1970">
            <path id="Path_1330" data-name="Path 1330" d="M86.5,210.2h.3c-.2-5.8,0-26.3,0-28.6,0-2.1-.1-12-.1-12.1l-.5-15.4h-.3l.5,15.4c0,.1.1,9.9.1,12C86.4,184,86.2,204.4,86.5,210.2Z" opacity="0.2" fill="url(#linear-gradient-20)"/>
          </g>
          <g id="Group_1971" data-name="Group 1971">
            <path id="Path_1331" data-name="Path 1331" d="M88.7,211.5c0-.3.2-32.9.1-36.4s-.3-20.3-.3-20.5h-.3c0,.2.1,16.9.3,20.5.1,3.5-.1,36-.1,36.4Z" opacity="0.2" fill="url(#linear-gradient-21)"/>
          </g>
          <g id="Group_1972" data-name="Group 1972">
            <path id="Path_1332" data-name="Path 1332" d="M91.1,211.5c0-.3.2-32.9.1-36.4s-.3-20.3-.3-20.5h-.3c0,.2.1,16.9.3,20.5.1,3.5-.1,36-.1,36.4Z" opacity="0.2" fill="url(#linear-gradient-22)"/>
          </g>
        </g>
      </g>
      <g id="Group_1975" data-name="Group 1975">
        <path id="Path_1334" data-name="Path 1334" d="M70.6,136.2s-9,4.5-10.6,5.5,1.8,28.5,1.1,38.4c-.2,3.1-.5,7-.8,11.2-.7,9.2-1.4,19.2-1.6,21,0,0,10.4,1.4,12.3-5.4C74.5,194,75.3,155.1,70.6,136.2Z" fill="url(#linear-gradient-23)"/>
        <path id="Path_1335" data-name="Path 1335" d="M73.5,135.6s-3.8,0-3.9,1.2c-.2,1.2-1.4,11.2-1.4,12.9,0,1.2,3.1,1.6,3.1,1.6l-2,3.1s2.3,10.1,3.5,18.4c.4,2.9,1.4,5.6,1.1,7.6C73.9,180.3,77.7,155.1,73.5,135.6Z" fill="url(#linear-gradient-24)"/>
      </g>
      <g id="Group_1978" data-name="Group 1978">
        <path id="Path_1336" data-name="Path 1336" d="M94.6,136.2s17.1,5.1,19.7,6.2c4.1,1.9-6.2,27.8-5.2,37.7s2.8,28.7,3.2,31.3c0,0-7.6-3.8-13.9-2.1a5.323,5.323,0,0,1-5.8-2.6C87,193.6,86.4,155.3,94.6,136.2Z" fill="url(#linear-gradient-25)"/>
        <path id="Path_1337" data-name="Path 1337" d="M60.2,192.4l5.4.8-.3,1.4-5.2-.8Z" fill="#333"/>
        <path id="Path_1338" data-name="Path 1338" d="M110.3,192.4l-6.6.9.4,1.4,6.4-.9Z" fill="#333"/>
        <path id="Path_1339" data-name="Path 1339" d="M94.9,135.5s3.4.3,3.4,1.5,1.4,11.3,1.1,13c-.4,1.6-4.5,1.3-4.5,1.3l2.3,3.3s-3.2,7.7-5.8,15.2c-1.3,3.9-3.1,7.7-3,10.3C88.4,180,86,154.5,94.9,135.5Z" fill="url(#linear-gradient-26)"/>
        <g id="Group_1976" data-name="Group 1976">
          <path id="Path_1340" data-name="Path 1340" d="M91.9,180.5a1.424,1.424,0,0,1,.6,2.1,1.541,1.541,0,0,1-2,.8,1.625,1.625,0,0,1-.8-2.2A1.642,1.642,0,0,1,91.9,180.5Z" fill="url(#linear-gradient-27)"/>
          <path id="Path_1341" data-name="Path 1341" d="M89.8,181.9a1.287,1.287,0,0,1,1.2-1.2c.7,0,1.3.3,1.3.9A1.584,1.584,0,0,1,91,183,1.193,1.193,0,0,1,89.8,181.9Z" fill="#333"/>
          <path id="Path_1342" data-name="Path 1342" d="M90.6,181.8a.247.247,0,0,1,.1.4c-.1.1-.3.2-.4.1a.292.292,0,0,1,.3-.5Z"/>
          <path id="Path_1343" data-name="Path 1343" d="M91.9,181.3a.247.247,0,0,1,.1.4c-.1.1-.3.2-.4.1a.247.247,0,0,1-.1-.4A.6.6,0,0,1,91.9,181.3Z"/>
          <path id="Path_1344" data-name="Path 1344" d="M90.6,182.1a3.176,3.176,0,0,1,1.1-.4s.2-.1,0-.2-1.1.4-1.1.4S90.4,182.1,90.6,182.1Z" fill="#eceded"/>
        </g>
        <g id="Group_1977" data-name="Group 1977">
          <path id="Path_1345" data-name="Path 1345" d="M92.9,190.8a1.424,1.424,0,0,1,.6,2.1,1.541,1.541,0,0,1-2,.8,1.625,1.625,0,0,1-.8-2.2A1.561,1.561,0,0,1,92.9,190.8Z" fill="url(#linear-gradient-28)"/>
          <path id="Path_1346" data-name="Path 1346" d="M90.8,192.2A1.287,1.287,0,0,1,92,191c.7,0,1.3.3,1.3.9a1.584,1.584,0,0,1-1.3,1.4A1.2,1.2,0,0,1,90.8,192.2Z" fill="#333"/>
          <path id="Path_1347" data-name="Path 1347" d="M91.6,192a.247.247,0,0,1,.1.4c-.1.1-.3.2-.4.1a.247.247,0,0,1-.1-.4C91.2,192,91.4,191.9,91.6,192Z"/>
          <path id="Path_1348" data-name="Path 1348" d="M92.9,191.6a.247.247,0,0,1,.1.4c-.1.1-.3.2-.4.1a.247.247,0,0,1-.1-.4C92.5,191.5,92.7,191.5,92.9,191.6Z"/>
          <path id="Path_1349" data-name="Path 1349" d="M91.6,192.4a3.176,3.176,0,0,1,1.1-.4s.2-.1,0-.2-1.1.4-1.1.4S91.3,192.3,91.6,192.4Z" fill="#eceded"/>
        </g>
      </g>
      <g id="Group_1979" data-name="Group 1979">
        <path id="Path_1350" data-name="Path 1350" d="M91.5,132.3s2.7,1.5,3.4,3.2a32.966,32.966,0,0,1-6,13.4s-1.5-4.5-3-5.8a29.419,29.419,0,0,0-3.6-2.4s4.3-1.6,5.6-3.1C88.8,136.3,91.5,132.3,91.5,132.3Z" fill="url(#linear-gradient-29)"/>
        <path id="Path_1351" data-name="Path 1351" d="M82.2,140.6s-3.9-2.7-4-4.2a36.592,36.592,0,0,0-.4-3.7s-3.8.7-4.3,3.1C73,139,74.9,147,74.9,147s3.4-4,4.8-4.9C80.9,141.4,82.2,140.6,82.2,140.6Z" fill="url(#linear-gradient-30)"/>
      </g>
      <g id="Group_1980" data-name="Group 1980">
        <path id="Path_1352" data-name="Path 1352" d="M67.2,118.2s-1.8.8-3.3-1.9-3.2-7.8-1.9-9.2c1.2-1.4,3.4-1.9,4.2-.4S67.2,118.2,67.2,118.2Z" fill="url(#linear-gradient-31)"/>
        <path id="Path_1353" data-name="Path 1353" d="M63.8,113.4c.1.2.1.4.2.5a6.793,6.793,0,0,1-1.1-1.9c-.8-2-.5-4,.6-4.4a1.448,1.448,0,0,1,1.1.1C63.2,108.4,62.8,110.9,63.8,113.4Z" fill="#eca06c"/>
      </g>
      <path id="Path_1354" data-name="Path 1354" d="M114.6,142.5s.4,1,3.1,8.2,7.6,28.3,7.6,30.4-8.8,9.6-12.3,0-3.5-17.2-4.3-21.8C108,154.6,107,141.5,114.6,142.5Z" fill="url(#linear-gradient-32)"/>
      <path id="XMLID_2_" d="M111.6,205c-1.1,3.4-1.9,6.3-2.1,7-.4,1.5-2.8,8.4-3.9,6.8a26.16,26.16,0,0,1-4.2-7.9,7.575,7.575,0,0,1-.1-2s3.9-2.9,4-3.8c.1-.8.5-2.8.5-2.8S112.6,201.7,111.6,205Z" fill-rule="evenodd" fill="url(#linear-gradient-33)"/>
      <g id="Group_1981" data-name="Group 1981">
        <path id="Path_1355" data-name="Path 1355" d="M111,212.2a6.531,6.531,0,0,0,1.9-2.6c.3-1,1.6-1.6.8-3.4-2.1-4.7-8.3-5.3-8.9-3.6-.5,1.4-1.7,4-2.2,5.1C102.6,207.7,105.9,212.7,111,212.2Z" fill="#eceded"/>
        <path id="Path_1356" data-name="Path 1356" d="M112.8,211.7s11.8-26,12.4-29.9c.6-4-9.3-5.5-11.6-.5-2.4,5-10.8,23.8-10.5,24.6C103.3,206.6,105.8,209.1,112.8,211.7Z" fill="url(#linear-gradient-34)"/>
      </g>
      <path id="Path_1357" data-name="Path 1357" d="M100.5,118.2s1.8.8,3.3-1.9,3.2-7.8,1.9-9.2c-1.2-1.4-3.4-1.9-4.2-.4S100.5,118.2,100.5,118.2Z" fill="url(#linear-gradient-35)"/>
      <path id="Path_1358" data-name="Path 1358" d="M66,109.5s.6,11.1,2,13.1,7.9,9,9.4,9.4c1.6.4,10,1.4,11.6,0s8.9-6.4,9.9-8.5a41.559,41.559,0,0,0,2.8-14c0-5.2,6.8-25.7-16.5-25.5S65.1,98.7,66,109.5Z" fill="url(#radial-gradient)"/>
      <path id="Path_1359" data-name="Path 1359" d="M85.2,117.9H81.9c-3.1,0-4.1,3.1-4.1,3.1s.3-.7,2.6-.5c1.8.2,2.8-.1,3.2-.6.4.5,1.3.8,3.2.6,2.3-.3,2.6.5,2.6.5S88.3,117.9,85.2,117.9Z" fill="url(#linear-gradient-36)"/>
      <path id="Path_1360" data-name="Path 1360" d="M87.7,101.6s-.2,1,1.2,1.8c0,0,5.9-.7,7.2-.7a3.326,3.326,0,0,1,1.4.7s0-2.4-1.8-3.1Z" fill="url(#linear-gradient-37)"/>
      <path id="Path_1361" data-name="Path 1361" d="M79.8,101.6s.2,1-1.2,1.8c0,0-5.9-.7-7.2-.7a3.326,3.326,0,0,0-1.4.7s0-2.4,1.8-3.1Z" fill="url(#linear-gradient-38)"/>
      <path id="Path_1362" data-name="Path 1362" d="M88.4,109.3s0-2.6,1.2-2.8,4.8-.4,5.8.5a2.179,2.179,0,0,1,.7,2.5c-.4,1.6-4.2,1.4-5.2,1.4A2.612,2.612,0,0,1,88.4,109.3Z" fill="#f9fefe"/>
      <g id="Group_1983" data-name="Group 1983">
        <ellipse id="Ellipse_369" data-name="Ellipse 369" cx="2.5" cy="2.4" rx="2.5" ry="2.4" transform="translate(90.2 106)" fill="url(#radial-gradient-2)"/>
        <ellipse id="Ellipse_370" data-name="Ellipse 370" cx="2" cy="1.9" rx="2" ry="1.9" transform="translate(90.7 106.7)" fill="#060001" opacity="0.7"/>
        <g id="Group_1982" data-name="Group 1982">
          <path id="Path_1363" data-name="Path 1363" d="M93.7,108.2v.2a1,1,0,0,1-2,0h0a4.234,4.234,0,0,0-1.2.4,2.249,2.249,0,0,0,2.2,1.9,2.22,2.22,0,0,0,2.2-2.2A2.663,2.663,0,0,0,93.7,108.2Z" fill="#fff" opacity="0.25"/>
          <path id="Path_1364" data-name="Path 1364" d="M92.8,108a.7.7,0,1,0,.7.7A.684.684,0,0,0,92.8,108Zm.4,1.3a.3.3,0,0,1-.4,0c-.1-.1,0-.3.1-.4a.3.3,0,0,1,.4,0C93.4,109,93.3,109.2,93.2,109.3Z" fill="#060001" opacity="0.35"/>
          <path id="Path_1365" data-name="Path 1365" d="M92.3,106.9c.3.3.3.8-.1,1.3-.4.4-.9.5-1.2.2s-.3-.8.1-1.3A.841.841,0,0,1,92.3,106.9Z" fill="#fff"/>
          <ellipse id="Ellipse_371" data-name="Ellipse 371" cx="0.4" cy="0.3" rx="0.4" ry="0.3" transform="matrix(0.669, -0.743, 0.743, 0.669, 93.506, 109.761)" fill="#fff"/>
        </g>
      </g>
      <path id="Path_1366" data-name="Path 1366" d="M96.2,108.5a2.884,2.884,0,0,0-1.5-2.3c-1.2-.7-4.1-.5-5.2-.1-.9.3-1,1.5-1,1.9a1.846,1.846,0,0,1,1.5-1.5c1.2-.2,4.5-.2,5.3.4A4.43,4.43,0,0,1,96.2,108.5Z" fill="url(#linear-gradient-39)"/>
      <path id="Path_1367" data-name="Path 1367" d="M79.2,109.3s0-2.6-1.2-2.8-4.8-.4-5.8.5a2.179,2.179,0,0,0-.7,2.5c.4,1.6,4.2,1.4,5.2,1.4A2.449,2.449,0,0,0,79.2,109.3Z" fill="#f9fefe"/>
      <g id="Group_1985" data-name="Group 1985">
        <ellipse id="Ellipse_372" data-name="Ellipse 372" cx="2.5" cy="2.4" rx="2.5" ry="2.4" transform="translate(73.2 106)" fill="url(#radial-gradient-3)"/>
        <ellipse id="Ellipse_373" data-name="Ellipse 373" cx="2" cy="1.9" rx="2" ry="1.9" transform="translate(73.7 106.7)" fill="#060001" opacity="0.7"/>
        <g id="Group_1984" data-name="Group 1984">
          <path id="Path_1368" data-name="Path 1368" d="M76.8,108.2v.2a1,1,0,0,1-2,0h0a4.234,4.234,0,0,0-1.2.4,2.249,2.249,0,0,0,2.2,1.9,2.22,2.22,0,0,0,2.2-2.2A2.663,2.663,0,0,0,76.8,108.2Z" fill="#fff" opacity="0.25"/>
          <path id="Path_1369" data-name="Path 1369" d="M75.8,108a.7.7,0,1,0,.7.7A.684.684,0,0,0,75.8,108Zm.4,1.3a.3.3,0,0,1-.4,0c-.1-.1,0-.3.1-.4a.3.3,0,0,1,.4,0A.247.247,0,0,1,76.2,109.3Z" fill="#060001" opacity="0.35"/>
          <path id="Path_1370" data-name="Path 1370" d="M75.3,106.9c.3.3.3.8-.1,1.3-.4.4-.9.5-1.2.2s-.3-.8.1-1.3C74.5,106.7,75,106.6,75.3,106.9Z" fill="#fff"/>
          <ellipse id="Ellipse_374" data-name="Ellipse 374" cx="0.4" cy="0.3" rx="0.4" ry="0.3" transform="matrix(0.669, -0.743, 0.743, 0.669, 76.522, 109.782)" fill="#fff"/>
        </g>
      </g>
      <path id="Path_1371" data-name="Path 1371" d="M71.4,108.5a2.884,2.884,0,0,1,1.5-2.3c1.2-.7,4.1-.5,5.2-.1.9.3,1,1.5,1,1.9a1.846,1.846,0,0,0-1.5-1.5c-1.2-.2-4.5-.2-5.3.4A4.43,4.43,0,0,0,71.4,108.5Z" fill="url(#linear-gradient-40)"/>
      <path id="Path_1372" data-name="Path 1372" d="M104.1,113.4c-.1.2-.1.4-.2.5A6.793,6.793,0,0,0,105,112c.8-2,.5-4-.6-4.4a1.448,1.448,0,0,0-1.1.1C104.7,108.4,105,110.9,104.1,113.4Z" fill="#eca06c"/>
      <path id="XMLID_1_" d="M80,117.4c0,.4,1.6.9,3.4,1,1.7.1,3.2-.4,3.2-.8,0-.2-.3-.4-1.2-.5-.6,0-1.4.8-2.2.8s-1.7-1.2-2.3-1.1C80.4,117,80,117.2,80,117.4Z" fill="#eca06c"/>
      <g id="Group_1988" data-name="Group 1988">
        <path id="Path_1373" data-name="Path 1373" d="M90.6,121.4c.3-.2.4-.5.6-.5s0,.5-.2.8-1.2,2.1-1.2,2.1a6.368,6.368,0,0,1-6.2,3.4,7.924,7.924,0,0,1-6.5-3.5c-.2-.4-.7-1.3-.9-1.6l-.3-.6c-.3-.4-.3-.8-.1-.8.3-.1.1.3.5.6.5.4,3.9.5,7.4.5C87.4,121.8,90.1,121.8,90.6,121.4Z" fill="#d0612a"/>
        <path id="Path_1374" data-name="Path 1374" d="M78.4,125.1c.1,0,3.8,1.6,5.8,1.6,1.7,0,3.9-.7,4.4-1.8C86.8,123.9,82.6,121.5,78.4,125.1Z" fill="url(#linear-gradient-41)"/>
        <path id="Path_1375" data-name="Path 1375" d="M85.9,125a8.428,8.428,0,0,0,3-.6s.1,0,0,.3c-1.4,1.2-5.1,1.3-7,1.2a8.5,8.5,0,0,1-4.2-1.6A22.051,22.051,0,0,0,85.9,125Z" fill="url(#linear-gradient-42)"/>
        <g id="Group_1987" data-name="Group 1987">
          <path id="Path_1376" data-name="Path 1376" d="M76.1,121.6c1.1,4.4,3.9,6.2,7.1,6.2,2.3,0,4.2.3,6.5-2.9a12.452,12.452,0,0,0,1.3-3.1c0-.1-.8,1-1.2,1.4a9.373,9.373,0,0,1-1.8,1.7c-1.8.9-6.1,1.1-7.7.4a6.107,6.107,0,0,1-2.9-2.2C75.8,121.3,76.1,121.6,76.1,121.6Z" fill-rule="evenodd" fill="url(#linear-gradient-43)"/>
          <g id="Group_1986" data-name="Group 1986">
            <path id="Path_1377" data-name="Path 1377" d="M77,121.3c1.7.1,3.5.5,5.3.6h1.5a5.7,5.7,0,0,0,1.3-.1c.5,0,.9-.1,1.4-.1,1.2-.2,2.3.1,3.5-.3-.2,1.2-3.3,2-6.4,2-1.6,0-5.6-.4-6.5-1.9C76.8,121.1,77,121.3,77,121.3Z" fill="url(#linear-gradient-44)"/>
          </g>
        </g>
      </g>
      <path id="Path_1378" data-name="Path 1378" d="M80.9,121.9a22.6,22.6,0,0,0,2.6.1,19.329,19.329,0,0,0,3.4-.1,30.294,30.294,0,0,0,3.6-.4c-1-.2-2-.6-2.9-.7a7.1,7.1,0,0,0-2.5-.1,3.529,3.529,0,0,1-1.4.3,6.579,6.579,0,0,1-1.5-.4c-1.8-.2-3.7.6-5.6.8a5.079,5.079,0,0,0,1.7.3C79.5,121.8,80,121.8,80.9,121.9Z" fill="url(#linear-gradient-45)"/>
      <path id="Path_1379" data-name="Path 1379" d="M90.8,120c.5,0,2,1,1.6,1.4-.4.3-.7-.2-.8-.3C91.3,120.7,91.1,120.4,90.8,120Z" fill="#eca06c"/>
      <path id="Path_1380" data-name="Path 1380" d="M76.2,120c-.5,0-2,1-1.6,1.4.4.3.7-.2.8-.3A7.632,7.632,0,0,0,76.2,120Z" fill="#eca06c"/>
      <g id="Group_1994" data-name="Group 1994">
        <path id="Path_1381" data-name="Path 1381" d="M57.1,189.6a13.963,13.963,0,0,0,1.5,4.9c1,1.4,2.7,2.4,3.7,1.4a19.145,19.145,0,0,0,3.6-5.7c.5-1.6,1.3-4.6.9-6.1a3.926,3.926,0,0,0-2.1-2.7c-1-.6-3.4-1.1-4.4-.7a4.254,4.254,0,0,0-2.3,1.4,4.859,4.859,0,0,0-1.1,3.3A21.235,21.235,0,0,0,57.1,189.6Z" fill="url(#linear-gradient-46)"/>
        <path id="Path_1382" data-name="Path 1382" d="M60.8,180.7s-1.4.4-2.1.7a3.532,3.532,0,0,0-1.9,2.8,51.688,51.688,0,0,0,.3,5.4,19.458,19.458,0,0,0,.6,2.8,32.186,32.186,0,0,0,4.7-1.2c1.1-.5,2.1-1,2.2-2a12.666,12.666,0,0,0,0-4.9,3.79,3.79,0,0,0-1.4-2.8A2.659,2.659,0,0,0,60.8,180.7Z" fill="#fff"/>
        <path id="Path_1383" data-name="Path 1383" d="M56.8,184.7a43.613,43.613,0,0,0,.3,5.1,19.458,19.458,0,0,0,.6,2.8,32.186,32.186,0,0,0,4.7-1.2c1.1-.5,2.1-1,2.2-2a12.666,12.666,0,0,0,0-4.9v-.1c-1.9,1.4-2.6,2.9-6.2,3.3C57.7,187.8,56.9,185.7,56.8,184.7Z" opacity="0.1"/>
        <g id="Group_1993" data-name="Group 1993">
          <path id="Path_1384" data-name="Path 1384" d="M58.4,181.3c.4-.7,1.6-2.1,2.2-3.2.6-1,.6-2.6.9-3.1.3-.6,1.7-1.1,1.9-1.8.1-.6-.1-2,.4-2.9a1.444,1.444,0,0,1,2.2-.4,6.5,6.5,0,0,1,1.7,4.1c0,1.3-.4,1.2-.8,1.5a1.2,1.2,0,0,1-.6.3,3.255,3.255,0,0,1,.7,1.7,11.329,11.329,0,0,1-.1,3.2c-.2.9-.9,2.6-.9,3.1a7,7,0,0,1-.2,1.3,27.629,27.629,0,0,1,1.7,2.3,3.768,3.768,0,0,1,.6,2.1,1.7,1.7,0,0,1-.4.7,10.606,10.606,0,0,1,1.7,1c1,.8,1.3,1.5,1.1,2.2a2.183,2.183,0,0,1-1.2,1,2.478,2.478,0,0,1,1.2,1.2,1.633,1.633,0,0,1-.6,2.2,1.691,1.691,0,0,1-1.8.1,8.989,8.989,0,0,1-1.8-1.2,9.822,9.822,0,0,1,1.7,2c.3.8.5,1.4-.3,2.1s-2,.2-2.8-.8a37.905,37.905,0,0,1-2.5-3.5,14.671,14.671,0,0,1-1.2-2.8,9.514,9.514,0,0,1-1.1-1.5,4.221,4.221,0,0,1-.5-1.6,7.558,7.558,0,0,1-2.4-4A8.474,8.474,0,0,1,58.4,181.3Z" fill="url(#linear-gradient-47)"/>
          <g id="Group_1989" data-name="Group 1989">
            <path id="Path_1385" data-name="Path 1385" d="M64.8,179.4a3.552,3.552,0,0,1,.4-.9,3.232,3.232,0,0,1,1.1-1.2.637.637,0,0,1,.6,0c.1.1.1.2.2.3v-.1a4.768,4.768,0,0,0-.7-1.7l.6-.3c.1,0,.1-.1.2-.1-.4.1-.8.2-1.1.3a2.572,2.572,0,0,1-1.5-.1,2.153,2.153,0,0,1-.2,1.1c-.2.4-1.1,1-1.3,1.4a2.542,2.542,0,0,0-.4,2.6,11.905,11.905,0,0,0,.9,1.5c.5.6.9,1.2,1.4,1.8a8.12,8.12,0,0,0,.9,1c.1.1.2.2.3.2a.31.31,0,0,1-.1-.2,7,7,0,0,0,.2-1.3v-.3A3.523,3.523,0,0,1,64.8,179.4Z" fill="url(#linear-gradient-48)"/>
          </g>
          <g id="Group_1990" data-name="Group 1990">
            <path id="Path_1386" data-name="Path 1386" d="M68.4,190.4a1.689,1.689,0,0,0-.5-.2h-.1a2.177,2.177,0,0,1-2.9-.7c-.7-.8-1.4-1.5-2.1-2.4a1.332,1.332,0,0,0-.5-.3c-1-.9-1.6-2.2-3.1-2.5a.891.891,0,0,1-.5-.8c-.4.7.5,1.3,1.1,1.8a14.129,14.129,0,0,1,2.1,2.3,8.636,8.636,0,0,0,1.4,1.3c.6.6,1.1.8,2.1,1.7a4.459,4.459,0,0,0,1.8.7C67.7,191.2,68.1,190.6,68.4,190.4Z" fill="url(#linear-gradient-49)"/>
          </g>
          <g id="Group_1991" data-name="Group 1991">
            <path id="Path_1387" data-name="Path 1387" d="M69.5,194.3a1.949,1.949,0,0,1-.8.1,7.5,7.5,0,0,1-3.5-1.9,8.637,8.637,0,0,0-1.6-1,3.552,3.552,0,0,0-.9-.4,9.5,9.5,0,0,1-1.9-1.6,10.917,10.917,0,0,0-1.7-1.3c-.1-.1-.3-.2-.4-.3-.2-.4,0-.6-.1-1l-.1.3c-.1.3,0,.4-.1.7v.2c0,.1.1.2.2.3.5.5,1.3,1.1,1.8,1.7a15.936,15.936,0,0,0,1.3,1.3c.5.3.9.5,1.4.8,1,.6,2,1.3,3.1,1.9a17.794,17.794,0,0,0,2.9,1.2,2.375,2.375,0,0,0,1.2-.3C70,194.7,69.6,194.4,69.5,194.3Z" fill="url(#linear-gradient-50)"/>
          </g>
          <g id="Group_1992" data-name="Group 1992">
            <path id="Path_1388" data-name="Path 1388" d="M68.2,198.6h0c0-.1-.1-.1,0,0v-.1h0l-.1-.1h0l-.1-.1-.4-.4c-.4-.2-.8-.5-1.2-.7-.7-.4-1.3-.8-1.9-1.2a23.176,23.176,0,0,1-2.7-2.5,3.744,3.744,0,0,1-.8-1.7h0a3.789,3.789,0,0,0,.5,1.6c.4.6,1.1,1.5,1.1,1.5v.1a17.075,17.075,0,0,0,2.8,2.2,11.8,11.8,0,0,1,1.8,1.3,7.071,7.071,0,0,1,1.5,1.5c.3.3.6.4.7.3-1.1-1.4-1.2-1.5-1.2-1.7Z" fill="url(#linear-gradient-51)"/>
          </g>
          <path id="Path_1389" data-name="Path 1389" d="M66.9,188.4s-.4-.7-.8-.8a1.11,1.11,0,0,0-1.1.4.761.761,0,0,0-.1.9,3.782,3.782,0,0,0,.8.7s-.2-.2.3-.8A1.6,1.6,0,0,1,66.9,188.4Z" fill="#ecc4aa" opacity="0.35"/>
          <path id="Path_1390" data-name="Path 1390" d="M69,192.3a7.072,7.072,0,0,0-1.2-.2c-.4,0-.6.4-.7.7s-.1.5.3.7a8.152,8.152,0,0,0,1.4.4.714.714,0,0,1-.3-.8A1.454,1.454,0,0,1,69,192.3Z" fill="#ecc4aa" opacity="0.35"/>
          <path id="Path_1391" data-name="Path 1391" d="M69.1,196a2.413,2.413,0,0,0-.8-.3.827.827,0,0,0-1,.4c-.1.3-.2.5.1.8a2.84,2.84,0,0,0,1,.6s-.3-.3.1-.8C68.8,196.1,69.1,196,69.1,196Z" fill="#ecc4aa" opacity="0.35"/>
          <path id="Path_1392" data-name="Path 1392" d="M67.2,199.4a3.807,3.807,0,0,0-.6-.5c-.3-.2-.6-.1-.9.2-.3.4,0,.7.2,1a7.365,7.365,0,0,0,.6.5s-.2-.2.1-.6C66.9,199.4,67.2,199.4,67.2,199.4Z" fill="#ecc4aa" opacity="0.35"/>
        </g>
      </g>
      <g id="Group_1998" data-name="Group 1998">
        <g id="Group_1995" data-name="Group 1995">
          <path id="Path_1393" data-name="Path 1393" d="M97.3,106.2a2.7,2.7,0,0,0-.8-.7,8.794,8.794,0,0,0-1-.6,7.945,7.945,0,0,0-2.2-.6,9.7,9.7,0,0,0-1.7.1,6.468,6.468,0,0,0-1.3.4c-.4.2-.9.4-1.3.6-.2.2-.5.3-.7.5a6.47,6.47,0,0,0-.8.9,5.171,5.171,0,0,0-.6,1.3.6.6,0,0,0-.1.4h0c0-.2-.1-.3-.1-.5,0-.1,0-.1-.1-.1a.367.367,0,0,0-.3.1l-.3.3c-.1,0-.3.1-.4.1h-4c-.2,0-.3,0-.4-.1q-.15,0-.3-.3c-.1-.1-.2-.2-.3-.1-.1,0-.1.1-.1.2,0,.2-.1.3-.1.5h0a.6.6,0,0,1-.1-.4,7.54,7.54,0,0,0-.6-1.3,3.45,3.45,0,0,0-.8-.9,1.794,1.794,0,0,0-.7-.5,6.738,6.738,0,0,0-2.6-.9,9.7,9.7,0,0,0-1.7-.1,5.549,5.549,0,0,0-2.2.6c-.3.2-.7.4-1,.6a6.034,6.034,0,0,0-.8.8,4.7,4.7,0,0,0-.6.9,3.085,3.085,0,0,0-.1,2.1.31.31,0,0,1,.1.2,1.445,1.445,0,0,1,.2.7c0,.1.1.2.2.3a5.241,5.241,0,0,0,1,1.1,7.632,7.632,0,0,0,1.1.8,11.731,11.731,0,0,0,1.1.5,6.373,6.373,0,0,0,.7.2,1.7,1.7,0,0,0,.7.1h.9a5.079,5.079,0,0,0,1.7-.3,6.117,6.117,0,0,0,1.2-.5,3.592,3.592,0,0,0,1-.7l.2-.2c.1,0,.3-.4.3-.4a2.186,2.186,0,0,0,.3-.5h.2l-.1.5c-.1.1-.1.3-.2.4-.2.2-.4.3-.5.6s.3.1.4.1a2.181,2.181,0,0,0,.5-.4,2.529,2.529,0,0,0,.6-1.5,4.869,4.869,0,0,0,.1-1.2c0-.1-.2-.5.1-.5.4.1.7.1,1.1.2h3.1a2.153,2.153,0,0,0,1.1-.2c.3-.1.1.3.1.5a4.869,4.869,0,0,0,.1,1.2,2.986,2.986,0,0,0,.6,1.4,1.756,1.756,0,0,0,.5.4c.1.1.4.2.4-.1s-.3-.4-.5-.6a.52.52,0,0,1-.2-.4s-.2-.5-.1-.5h.2c.1.2.2.3.3.5,0,.1.3.4.3.4l.2.2a3.591,3.591,0,0,0,1,.7,6.117,6.117,0,0,0,1.2.5,4.954,4.954,0,0,0,1.7.2H93c.2,0,.5-.1.7-.1a6.373,6.373,0,0,1,.7-.2,5.359,5.359,0,0,0,1.1-.5,4.44,4.44,0,0,0,1.1-.8,2.73,2.73,0,0,0,.9-1.2c.1-.1.1-.2.2-.3a1.445,1.445,0,0,0,.2-.7c0-.1,0-.1.1-.2A3.6,3.6,0,0,0,97.3,106.2ZM80.1,110a3.552,3.552,0,0,1-.4.9,4.944,4.944,0,0,1-1.9,1.6,1.445,1.445,0,0,1-.7.2c-.2.1-.5.1-.8.2-.2,0-.5.1-.7.1a2.879,2.879,0,0,1-1.3-.1,2.92,2.92,0,0,1-.9-.2,7.741,7.741,0,0,1-1.6-.7,5.5,5.5,0,0,1-.9-.7,2.407,2.407,0,0,1-.6-.8c-.1-.2-.3-.5-.4-.7a1.445,1.445,0,0,1-.2-.7c0-.2-.1-.4,0-.6a2.41,2.41,0,0,1,.4-1.5,4.6,4.6,0,0,1,1.6-1.6,3.946,3.946,0,0,1,1.5-.6c.3-.1.7-.1,1.1-.2h.3c.4,0,.9.1,1.3.1a5.637,5.637,0,0,1,1.2.4,8.636,8.636,0,0,1,1.6,1l.1.1c.2.1.3.3.5.5a1.381,1.381,0,0,1,.3.4,2.994,2.994,0,0,1,.4.8,3.545,3.545,0,0,1,.3,1.1A4.4,4.4,0,0,1,80.1,110Zm17.6-1a1.854,1.854,0,0,1-.2.7,2.506,2.506,0,0,1-.4.7c-.2.3-.4.5-.6.8a5.5,5.5,0,0,1-.9.7,4.594,4.594,0,0,1-1.6.7,2.92,2.92,0,0,1-.9.2,5.7,5.7,0,0,1-1.3.1,1.7,1.7,0,0,1-.7-.1,2.354,2.354,0,0,1-.8-.2c-.2-.1-.5-.1-.7-.2a4.213,4.213,0,0,1-1.9-1.6,3.552,3.552,0,0,1-.4-.9,3.6,3.6,0,0,1-.2-1.1,4.508,4.508,0,0,1,.3-1.1c.1-.3.3-.5.4-.8.1-.1.2-.3.3-.4.2-.2.3-.4.5-.5l.1-.1a5.372,5.372,0,0,1,1.6-1,5.638,5.638,0,0,1,1.2-.4,5.7,5.7,0,0,1,1.3-.1h.3a4.253,4.253,0,0,1,1.1.2,4.714,4.714,0,0,1,1.5.6,5.5,5.5,0,0,1,.9.7,3.114,3.114,0,0,1,.7.9,2.822,2.822,0,0,1,.4,1.5A1.634,1.634,0,0,1,97.7,109Z" fill-rule="evenodd"/>
        </g>
        <g id="Group_1996" data-name="Group 1996">
          <path id="Path_1394" data-name="Path 1394" d="M98.4,97.4c.2,4,3.2,3.6,1.9,8.3.7,1.4.7,4.8,1.7,4.7-.1-5.5,6.6-8,1.5-20.6C100.5,82.3,98,88.6,98.4,97.4Z" fill="url(#linear-gradient-52)"/>
          <path id="Path_1395" data-name="Path 1395" d="M89.1,77.9c-7.9-1-16.1.3-19.6,4a8.732,8.732,0,0,0-2,4.8c-.9-.8-2.1-.1-3.3,3-5,12.6,1.8,15,1.7,20.6.9.1.9-3.3,1.7-4.7-1.3-4.7,1.8-4.3,1.9-8.3a27.883,27.883,0,0,0-.2-5.1c1.8,2.2,5.3,3.6,8.3,4,6.3.8,19.1,1.6,21.6-5a.367.367,0,0,0,.3-.1c1.6-.4,5.4-.9,3.9-4.8C101.8,82.9,96.8,78.9,89.1,77.9Z" fill="url(#linear-gradient-53)"/>
        </g>
        <g id="Group_1997" data-name="Group 1997">
          <path id="Path_1396" data-name="Path 1396" d="M72.4,87.8c2.4,1.8,7.2,6.4,15.1,4.9C84.7,92.4,76.2,90.4,72.4,87.8Z" opacity="0.5" fill="url(#linear-gradient-54)"/>
          <path id="Path_1397" data-name="Path 1397" d="M67.8,89.3a13.747,13.747,0,0,0-3.4,6.1C64.6,92.3,65.3,89.3,67.8,89.3Z" opacity="0.5" fill="url(#linear-gradient-55)"/>
          <path id="Path_1398" data-name="Path 1398" d="M64.1,91.7c.6-.8,1.8-3.3,2.9-3.4C66.4,87.5,64.5,88.9,64.1,91.7Z" opacity="0.5" fill="url(#linear-gradient-56)"/>
          <path id="Path_1399" data-name="Path 1399" d="M76,92.1c1.9,1.2,8.4,3.9,13.2,3.2,4.9-.7,5.4-1.5,5.4-1.5C91.7,94,86.4,94.9,76,92.1Z" opacity="0.5" fill="url(#linear-gradient-57)"/>
          <path id="Path_1400" data-name="Path 1400" d="M103.3,102.8c.2-2.1.3-7.1-.3-9C105.2,95.6,104.9,97.7,103.3,102.8Z" opacity="0.5" fill="url(#linear-gradient-58)"/>
        </g>
      </g>
    </g>
  </g>
</svg>
